^D:\INFORMATIK\WS 19-20\GAME PHYSICS\GAMEPHYSICSTEMPLATE-MASTER\SIMULATIONS\MAIN.CPP
D:\INFORMATIK\WS 19-20\GAME PHYSICS\GAMEPHYSICSTEMPLATE-MASTER\SIMULATIONSRUNNER\X64\DEBUG\VC141.PDB
D:\INFORMATIK\WS 19-20\GAME PHYSICS\GAMEPHYSICSTEMPLATE-MASTER\SIMULATIONSRUNNER\X64\DEBUG\VC141.IDB
D:\INFORMATIK\WS 19-20\GAME PHYSICS\GAMEPHYSICSTEMPLATE-MASTER\SIMULATIONSRUNNER\X64\DEBUG\MAIN.OBJ
