^D:\INFORMATIK\WS 19-20\GAME PHYSICS\GAMEPHYSICSTEMPLATE-MASTER\SIMULATIONS\TEMPLATESIMULATOR.CPP
/c /I"D:\INFORMATIK\WS 19-20\GAME PHYSICS\GAMEPHYSICSTEMPLATE-MASTER\DIRECTXTK/INC" /I"D:\INFORMATIK\WS 19-20\GAME PHYSICS\GAMEPHYSICSTEMPLATE-MASTER\DXUT11/CORE" /I"D:\INFORMATIK\WS 19-20\GAME PHYSICS\GAMEPHYSICSTEMPLATE-MASTER\DXUT11/OPTIONAL" /I"D:\INFORMATIK\WS 19-20\GAME PHYSICS\GAMEPHYSICSTEMPLATE-MASTER\EFFECTS11/INC" /I"D:\INFORMATIK\WS 19-20\GAME PHYSICS\GAMEPHYSICSTEMPLATE-MASTER\ANTTWEAKBAR/INCLUDE" /ZI /JMC /nologo /W3 /WX- /diagnostics:classic /Od /Oy- /D WIN32 /D NOMINMAX /D _CONSOLE /D _DEBUG /D _UNICODE /D UNICODE /Gm- /EHsc /RTC1 /MDd /GS /fp:precise /Zc:wchar_t /Zc:forScope /Zc:inline /Fo"WIN32\DEBUG\\" /Fd"WIN32\DEBUG\SIMULATIONS.PDB" /Gd /TP /analyze- /FC D:\INFORMATIK\WS 19-20\GAME PHYSICS\GAMEPHYSICSTEMPLATE-MASTER\SIMULATIONS\TEMPLATESIMULATOR.CPP
^D:\INFORMATIK\WS 19-20\GAME PHYSICS\GAMEPHYSICSTEMPLATE-MASTER\SIMULATIONS\UTIL\FFMPEG.CPP
/c /I"D:\INFORMATIK\WS 19-20\GAME PHYSICS\GAMEPHYSICSTEMPLATE-MASTER\DIRECTXTK/INC" /I"D:\INFORMATIK\WS 19-20\GAME PHYSICS\GAMEPHYSICSTEMPLATE-MASTER\DXUT11/CORE" /I"D:\INFORMATIK\WS 19-20\GAME PHYSICS\GAMEPHYSICSTEMPLATE-MASTER\DXUT11/OPTIONAL" /I"D:\INFORMATIK\WS 19-20\GAME PHYSICS\GAMEPHYSICSTEMPLATE-MASTER\EFFECTS11/INC" /I"D:\INFORMATIK\WS 19-20\GAME PHYSICS\GAMEPHYSICSTEMPLATE-MASTER\ANTTWEAKBAR/INCLUDE" /ZI /JMC /nologo /W3 /WX- /diagnostics:classic /Od /Oy- /D WIN32 /D NOMINMAX /D _CONSOLE /D _DEBUG /D _UNICODE /D UNICODE /Gm- /EHsc /RTC1 /MDd /GS /fp:precise /Zc:wchar_t /Zc:forScope /Zc:inline /Fo"WIN32\DEBUG\\" /Fd"WIN32\DEBUG\SIMULATIONS.PDB" /Gd /TP /analyze- /FC D:\INFORMATIK\WS 19-20\GAME PHYSICS\GAMEPHYSICSTEMPLATE-MASTER\SIMULATIONS\UTIL\FFMPEG.CPP
^D:\INFORMATIK\WS 19-20\GAME PHYSICS\GAMEPHYSICSTEMPLATE-MASTER\SIMULATIONS\UTIL\UTIL.CPP
/c /I"D:\INFORMATIK\WS 19-20\GAME PHYSICS\GAMEPHYSICSTEMPLATE-MASTER\DIRECTXTK/INC" /I"D:\INFORMATIK\WS 19-20\GAME PHYSICS\GAMEPHYSICSTEMPLATE-MASTER\DXUT11/CORE" /I"D:\INFORMATIK\WS 19-20\GAME PHYSICS\GAMEPHYSICSTEMPLATE-MASTER\DXUT11/OPTIONAL" /I"D:\INFORMATIK\WS 19-20\GAME PHYSICS\GAMEPHYSICSTEMPLATE-MASTER\EFFECTS11/INC" /I"D:\INFORMATIK\WS 19-20\GAME PHYSICS\GAMEPHYSICSTEMPLATE-MASTER\ANTTWEAKBAR/INCLUDE" /ZI /JMC /nologo /W3 /WX- /diagnostics:classic /Od /Oy- /D WIN32 /D NOMINMAX /D _CONSOLE /D _DEBUG /D _UNICODE /D UNICODE /Gm- /EHsc /RTC1 /MDd /GS /fp:precise /Zc:wchar_t /Zc:forScope /Zc:inline /Fo"WIN32\DEBUG\\" /Fd"WIN32\DEBUG\SIMULATIONS.PDB" /Gd /TP /analyze- /FC D:\INFORMATIK\WS 19-20\GAME PHYSICS\GAMEPHYSICSTEMPLATE-MASTER\SIMULATIONS\UTIL\UTIL.CPP
