^D:\INFORMATIK\WS 19-20\GAME PHYSICS\GAMEPHYSICSTEMPLATE-MASTER\SIMULATIONS\WIN32\DEBUG\FFMPEG.OBJ|D:\INFORMATIK\WS 19-20\GAME PHYSICS\GAMEPHYSICSTEMPLATE-MASTER\SIMULATIONS\WIN32\DEBUG\TEMPLATESIMULATOR.OBJ|D:\INFORMATIK\WS 19-20\GAME PHYSICS\GAMEPHYSICSTEMPLATE-MASTER\SIMULATIONS\WIN32\DEBUG\UTIL.OBJ
D:\INFORMATIK\WS 19-20\GAME PHYSICS\GAMEPHYSICSTEMPLATE-MASTER\SIMULATIONS\WIN32\DEBUG\TEMPLATESIMULATOR.OBJ
C:\WINDOWS\SYSTEM32\TZRES.DLL
D:\INFORMATIK\WS 19-20\GAME PHYSICS\GAMEPHYSICSTEMPLATE-MASTER\SIMULATIONS\WIN32\DEBUG\FFMPEG.OBJ
D:\INFORMATIK\WS 19-20\GAME PHYSICS\GAMEPHYSICSTEMPLATE-MASTER\SIMULATIONS\WIN32\DEBUG\UTIL.OBJ
C:\WINDOWS\GLOBALIZATION\SORTING\SORTDEFAULT.NLS
